sample/sample.vcd
$date
	Sat May  9 15:17:11 2026
$end
$version
	Icarus Verilog
$end
$timescale
	1ps
$end
$scope module tb_pmic_fsm $end
$var wire 4 ! current_state [3:0] $end
$var wire 9 " current_vg [8:0] $end
$var wire 5 # fault_latch [4:0] $end
$var wire 1 $ vg_established $end
$var wire 1 % vg_en $end
$var wire 7 & vg_ctrl_fine [6:0] $end
$var wire 2 ' vg_ctrl_coarse [1:0] $end
$var wire 9 ( vg_code [8:0] $end
$var wire 1 ) vd_en $end
$var wire 32 * v_g_display [31:0] $end
$var wire 32 + v_g_dac [31:0] $end
$var wire 32 , v_d [31:0] $end
$var wire 3 - sys_state [2:0] $end
$var wire 1 . fsm_done $end
$var wire 9 / current_vg_full [8:0] $end
$var wire 1 0 c0_c1_en $end
$var wire 10 1 adc_saturated [9:0] $end
$var wire 11 2 adc_diff [10:0] $end
$var wire 11 3 adc_calc [10:0] $end
$var parameter 8 4 ADC_DELAY $end
$var parameter 32 5 ADC_WIDTH $end
$var parameter 9 6 BASE_VG $end
$var parameter 32 7 CLK_PERIOD $end
$var parameter 16 8 Q5_HOLD $end
$var parameter 32 9 TARGET_ERR $end
$var parameter 32 : TEST_MODE $end
$var parameter 10 ; TGT_CURR $end
$var parameter 10 < T_OFFSET $end
$var parameter 8 = WAIT_CYCLES $end
$var reg 8 > adc_cnt [7:0] $end
$var reg 10 ? adc_data [9:0] $end
$var reg 1 @ adc_valid $end
$var reg 1 A algo_sel $end
$var reg 1 B c0_c1 $end
$var reg 1 C clk $end
$var reg 1 D mismatch_alarm_in $end
$var reg 1 E ocp_alarm_in $end
$var reg 1 F otp_alarm_in $end
$var reg 1 G overpwr_alarm_in $end
$var reg 1 H ovp_alarm_in $end
$var reg 4 I prev_state [3:0] $end
$var reg 1 J rst_n $end
$var reg 1 K t0 $end
$var reg 9 L target_temp [8:0] $end
$var reg 1 M trigger_int $end
$var reg 1 N vcc_in $end
$var integer 32 O fail_cnt [31:0] $end
$var integer 32 P pass_cnt [31:0] $end
$var integer 32 Q v_bat [31:0] $end
$var integer 32 R v_cc [31:0] $end
$var integer 32 S v_d_supply [31:0] $end
$var integer 32 T v_g [31:0] $end
$scope function state_name $end
$var reg 4 U s [3:0] $end
$upscope $end
$scope module dut $end
$var wire 10 V adc_data [9:0] $end
$var wire 1 @ adc_valid $end
$var wire 1 A algo_sel $end
$var wire 1 B c0_c1 $end
$var wire 1 C clk $end
$var wire 1 D mismatch_alarm_in $end
$var wire 1 E ocp_alarm_in $end
$var wire 1 F otp_alarm_in $end
$var wire 1 G overpwr_alarm_in $end
$var wire 1 H ovp_alarm_in $end
$var wire 1 J rst_n $end
$var wire 1 K t0 $end
$var wire 9 W target_temp [8:0] $end
$var wire 1 M trigger_int $end
$var wire 1 N vcc_in $end
$var wire 9 X vg_temp_cal_sat [8:0] $end
$var wire 1 $ vg_established $end
$var wire 1 % vg_en $end
$var wire 7 Y vg_ctrl_fine [6:0] $end
$var wire 2 Z vg_ctrl_coarse [1:0] $end
$var wire 1 ) vd_en $end
$var wire 10 [ temp_offset [9:0] $end
$var wire 1 \ temp_load_req $end
$var wire 1 ] temp_load_done $end
$var wire 10 ^ target_current [9:0] $end
$var wire 1 _ t0_sync $end
$var wire 3 ` sys_state [2:0] $end
$var wire 9 a search_mid [8:0] $end
$var wire 9 b search_low [8:0] $end
$var wire 9 c search_high [8:0] $end
$var wire 1 d ovp_alarm_sync $end
$var wire 1 e overpwr_alarm_sync $end
$var wire 1 f overpwr_alarm $end
$var wire 1 g otp_alarm_sync $end
$var wire 1 h ocp_alarm_sync $end
$var wire 1 i nv_store_req $end
$var wire 1 j nv_store_done $end
$var wire 9 k nv_store_data [8:0] $end
$var wire 1 l nv_load_req $end
$var wire 1 m nv_load_done $end
$var wire 1 n mismatch_alarm_sync $end
$var wire 1 o mismatch_alarm $end
$var wire 1 . fsm_done $end
$var wire 1 p error_within_limit $end
$var wire 1 q current_too_high $end
$var wire 1 0 c0_c1_en $end
$var wire 9 r base_vg [8:0] $end
$var parameter 32 s ADC_WIDTH $end
$var parameter 9 t BASE_VG $end
$var parameter 16 u Q5_HOLD_CYCLES $end
$var parameter 10 v TARGET_CURRENT $end
$var parameter 32 w TARGET_ERR $end
$var parameter 10 x TEMP_OFFSET $end
$var parameter 8 y WAIT_CYCLES $end
$scope module u_fsm_ctrl $end
$var wire 1 @ adc_valid $end
$var wire 1 A algo_sel $end
$var wire 1 B c0_c1 $end
$var wire 1 0 c0_c1_en $end
$var wire 1 C clk $end
$var wire 1 z fault_any_q0q2 $end
$var wire 1 { fault_any_q3q5 $end
$var wire 1 J rst_n $end
$var wire 1 | start_pulse $end
$var wire 9 } target_temp [8:0] $end
$var wire 1 ) vd_en $end
$var wire 1 % vg_en $end
$var wire 9 ~ vg_temp_cal_sat [8:0] $end
$var wire 9 !" vg_output [8:0] $end
$var wire 7 "" vg_ctrl_fine [6:0] $end
$var wire 2 #" vg_ctrl_coarse [1:0] $end
$var wire 1 ] temp_load_done $end
$var wire 1 _ t0_sync $end
$var wire 3 $" sys_state [2:0] $end
$var wire 9 %" search_mid [8:0] $end
$var wire 1 d ovp_alarm_in $end
$var wire 1 e overpwr_alarm_in $end
$var wire 1 g otp_alarm_in $end
$var wire 1 h ocp_alarm_in $end
$var wire 1 j nv_store_done $end
$var wire 1 m nv_load_done $end
$var wire 1 n mismatch_alarm_in $end
$var wire 1 p error_within_limit $end
$var wire 1 q current_too_high $end
$var parameter 32 &" FAULT_MISMATCH $end
$var parameter 32 '" FAULT_OCP $end
$var parameter 32 (" FAULT_OTP $end
$var parameter 32 )" FAULT_OVERPWR $end
$var parameter 32 *" FAULT_OVP $end
$var parameter 16 +" Q5_HOLD_CYCLES $end
$var parameter 4 ," ST_ADJUST $end
$var parameter 4 -" ST_COMPARE $end
$var parameter 4 ." ST_DONE $end
$var parameter 4 /" ST_HOLD $end
$var parameter 4 0" ST_IDLE $end
$var parameter 4 1" ST_SHUTDOWN $end
$var parameter 4 2" ST_STORE_NV $end
$var parameter 4 3" ST_TEMP_COMP $end
$var parameter 4 4" ST_WAIT_ADC $end
$var parameter 4 5" ST_WAIT_PWR1 $end
$var parameter 4 6" ST_WAIT_PWR2 $end
$var parameter 8 7" WAIT_CYCLES $end
$var reg 1 8" c0_c1_d1 $end
$var reg 1 9" c0_c1_d2 $end
$var reg 1 :" calib_mode $end
$var reg 4 ;" current_state [3:0] $end
$var reg 9 <" current_vg [8:0] $end
$var reg 5 =" fault_latch [4:0] $end
$var reg 1 . fsm_done $end
$var reg 1 o mismatch_alarm $end
$var reg 4 >" next_state [3:0] $end
$var reg 1 l nv_load_req $end
$var reg 9 ?" nv_store_data [8:0] $end
$var reg 1 i nv_store_req $end
$var reg 1 f overpwr_alarm $end
$var reg 8 @" q1_wait_cnt [7:0] $end
$var reg 8 A" q2_wait_cnt [7:0] $end
$var reg 16 B" q5_hold_cnt [15:0] $end
$var reg 9 C" search_high [8:0] $end
$var reg 9 D" search_low [8:0] $end
$var reg 1 \ temp_load_req $end
$var reg 1 $ vg_established $end
$var reg 8 E" wait_cnt [7:0] $end
$upscope $end
$scope module u_math_core $end
$var wire 10 F" adc_data [9:0] $end
$var wire 9 G" search_high [8:0] $end
$var wire 9 H" search_low [8:0] $end
$var wire 9 I" vg_temp_cal_sat [8:0] $end
$var wire 11 J" vg_temp_cal [10:0] $end
$var wire 10 K" temp_offset [9:0] $end
$var wire 10 L" target_current [9:0] $end
$var wire 10 M" search_sum [9:0] $end
$var wire 9 N" search_mid [8:0] $end
$var wire 1 p error_within_limit $end
$var wire 11 O" diff_signed [10:0] $end
$var wire 1 q current_too_high $end
$var wire 11 P" base_vg_signed [10:0] $end
$var wire 9 Q" base_vg [8:0] $end
$var wire 11 R" abs_diff [10:0] $end
$var parameter 32 S" ADC_WIDTH $end
$var parameter 32 T" TARGET_ERR $end
$upscope $end
$scope module u_nv_ctrl_stub $end
$var wire 1 C clk $end
$var wire 1 l load_req $end
$var wire 1 J rst_n $end
$var wire 9 U" store_data [8:0] $end
$var wire 1 i store_req $end
$var wire 9 V" target_temp [8:0] $end
$var wire 1 \ temp_load_req $end
$var wire 10 W" lut_offset [9:0] $end
$var parameter 9 X" BASE_VG $end
$var parameter 32 Y" LOAD_LATENCY $end
$var parameter 32 Z" STORE_LATENCY $end
$var parameter 10 [" TARGET_CURRENT $end
$var parameter 32 \" TEMP_LATENCY $end
$var parameter 10 ]" TEMP_OFFSET $end
$var reg 9 ^" base_vg [8:0] $end
$var reg 8 _" load_cnt [7:0] $end
$var reg 1 m load_done $end
$var reg 8 `" store_cnt [7:0] $end
$var reg 1 j store_done $end
$var reg 10 a" target_current [9:0] $end
$var reg 8 b" temp_cnt [7:0] $end
$var reg 1 ] temp_load_done $end
$var reg 10 c" temp_offset [9:0] $end
$upscope $end
$scope module u_sync_ext $end
$var wire 1 K async_in $end
$var wire 1 C clk $end
$var wire 1 J rst_n $end
$var wire 1 _ sync_out $end
$var reg 1 d" ff1 $end
$var reg 1 e" ff2 $end
$upscope $end
$scope module u_sync_mismatch $end
$var wire 1 D async_in $end
$var wire 1 C clk $end
$var wire 1 J rst_n $end
$var wire 1 n sync_out $end
$var reg 1 f" ff1 $end
$var reg 1 n ff2 $end
$upscope $end
$scope module u_sync_ocp $end
$var wire 1 E async_in $end
$var wire 1 C clk $end
$var wire 1 J rst_n $end
$var wire 1 h sync_out $end
$var reg 1 g" ff1 $end
$var reg 1 h ff2 $end
$upscope $end
$scope module u_sync_otp $end
$var wire 1 F async_in $end
$var wire 1 C clk $end
$var wire 1 J rst_n $end
$var wire 1 g sync_out $end
$var reg 1 h" ff1 $end
$var reg 1 g ff2 $end
$upscope $end
$scope module u_sync_overpwr $end
$var wire 1 G async_in $end
$var wire 1 C clk $end
$var wire 1 J rst_n $end
$var wire 1 e sync_out $end
$var reg 1 i" ff1 $end
$var reg 1 e ff2 $end
$upscope $end
$scope module u_sync_ovp $end
$var wire 1 H async_in $end
$var wire 1 C clk $end
$var wire 1 J rst_n $end
$var wire 1 d sync_out $end
$var reg 1 j" ff1 $end
$var reg 1 d ff2 $end
$upscope $end
$upscope $end
$scope task advance_to_q4 $end
$upscope $end
$scope task reset_system $end
$upscope $end
$scope task start_fsm $end
$upscope $end
$upscope $end
$enddefinitions $end
$comment Show the parameter values. $end
$dumpall
b0 ]"
b1 \"
b111000010 ["
b1 Z"
b10 Y"
b11100001 X"
b1 T"
b1010 S"
b10 7"
b1000 6"
b1 5"
b11 4"
b10 3"
b110 2"
b1011 1"
b0 0"
b1010 /"
b111 ."
b100 -"
b101 ,"
b1010 +"
b0 *"
b11 )"
b10 ("
b1 '"
b100 &"
b10 y
b0 x
b1 w
b111000010 v
b1010 u
b11100001 t
b1010 s
b10 =
b0 <
b111000010 ;
b0 :
b1 9
b1010 8
b10100 7
b11100001 6
b1010 5
b101 4
$end
#0
$dumpvars
0j"
0i"
0h"
0g"
0f"
0e"
0d"
b0 c"
b0 b"
b111000010 a"
b0 `"
b0 _"
b11100001 ^"
b0 W"
b11001 V"
b0 U"
b111000010 R"
b11100001 Q"
b11100001 P"
b11000111110 O"
b11111111 N"
b111111111 M"
b111000010 L"
b0 K"
b11100001 J"
b11100001 I"
b0 H"
b111111111 G"
b0 F"
b0 E"
b0 D"
b111111111 C"
b0 B"
bx A"
bx @"
b0 ?"
b0 >"
b0 ="
b0 <"
b0 ;"
0:"
09"
08"
b11111111 %"
b0 $"
b0 #"
b0 ""
b0 !"
b11100001 ~
b11001 }
0|
0{
0z
b11100001 r
0q
0p
0o
0n
0m
0l
b0 k
0j
0i
0h
0g
0f
0e
0d
b111111111 c
b0 b
b11111111 a
b0 `
0_
b111000010 ^
0]
0\
b0 [
b0 Z
b0 Y
b11100001 X
b11001 W
b0 V
bx U
b0 T
b110110101100000 S
b0 R
b110011100100 Q
bx P
bx O
0N
0M
b11001 L
0K
0J
bx I
0H
0G
0F
0E
0D
0C
0B
0A
0@
b0 ?
b0 >
b101110010 3
b11110110000 2
b101110010 1
00
b0 /
0.
b0 -
b0 ,
b11111111111111111110110001111000 +
b0 *
0)
b0 (
b0 '
b0 &
0%
0$
b0 #
b0 "
b0 !
$end
#10000
b0 I
1C
#20000
0C
#30000
1C
#40000
0C
#50000
1C
#60000
0C
#70000
1C
#80000
0C
#90000
1C
#100000
0C
#110000
1C
#120000
0C
#130000
1C
#140000
0C
#150000
1C
#160000
0C
#170000
1C
#180000
0C
#190000
1C
#200000
0C
#210000
1C
#220000
0C
#230000
1C
#240000
0C
#250000
b11100001000 R
1C
1N
#251000
1J
#260000
0C
#270000
b0 A"
b0 @"
b1 >
1C
#280000
0C
#290000
b10 >
1C
#291000
10
b1 -
b1 `
b1 $"
b1 >"
1M
1B
#300000
0C
#310000
1|
18"
b1 !
b1 ;"
b11 >
1C
#320000
0C
#330000
b11111111111111111110110001111000 T
b11111111111111111110110001111000 *
1%
b10 -
b10 `
b10 $"
b1000 >"
0|
b100 >
b1 @"
19"
b1 I
0M
1C
#340000
0C
#350000
b1010000 R"
b1000 !
b1000 ;"
b10 @"
1@
b11110110000 O"
b101110010 ?
b101110010 V
b101110010 F"
b0 >
1C
#360000
0C
#370000
b110110101100000 ,
1)
b11 -
b11 `
b11 $"
b10 >"
b1 >
0@
b1 A"
b1000 I
1C
#380000
0C
#390000
b10 !
b10 ;"
b10 A"
b10 >
1C
#400000
0C
#410000
b11 >
1\
1l
b10 I
1C
#420000
0C
#430000
1\
1l
b1 b"
b10 _"
b100 >
1C
#440000
0C
#450000
1@
b0 >
1]
b0 b"
b1 _"
1\
1l
1C
#460000
0C
#470000
1\
1l
b1 b"
1m
b0 _"
0]
b1 >
0@
1C
#480000
0C
#490000
b10 >
1]
b0 b"
b10 _"
0m
1\
1l
1C
#500000
0C
#510000
1\
1l
b1 b"
b1 _"
0]
b11 >
1C
#520000
0C
#530000
b1001010011 1
b11111111111111111111001101011001 T
b11111111111111111111001101011001 *
b1 '
b1 Z
b1 #"
b1001010011 3
b10010001 2
b11100001 /
b11111111111111111111001101011001 +
b11100001 (
b1100001 &
b1100001 Y
b1100001 ""
b100 -
b100 `
b100 $"
b11100001 !"
b111 >"
b100 >
1]
b0 b"
1m
b0 _"
1\
1l
1C
#540000
0C
#550000
b10010001 R"
b111 !
b111 ;"
b11100001 "
b11100001 <"
1\
1l
b1 b"
b10 _"
0]
0m
1@
1q
b10010001 O"
b1001010011 ?
b1001010011 V
b1001010011 F"
b0 >
1C
#560000
0C
#570000
b1 >
0@
1]
b0 b"
b1 _"
1$
1.
0\
0l
b111 I
1C
#580000
0C
#590000
1m
b0 _"
0]
b10 >
1C
#600000
0C
#610000
b11 >
0m
1C
#620000
0C
#630000
b100 >
1C
#640000
0C
#650000
1@
b0 >
1C
#660000
0C
#670000
b1 >
0@
1C
#680000
0C
#690000
b10 >
1C
#700000
0C
#710000
b11 >
1C
#720000
0C
#730000
b100 >
1C
#740000
0C
#750000
1@
b0 >
1C
#760000
0C
#770000
b1 >
0@
1C
#780000
0C
#790000
b10 >
1C
#800000
0C
#810000
b11 >
1C
#820000
0C
#830000
b100 >
1C
#840000
0C
#850000
1@
b0 >
1C
#860000
0C
#870000
b1 >
0@
1C
#880000
0C
#890000
b10 >
1C
#900000
0C
#910000
b11 >
1C
#920000
0C
#930000
b100 >
1C
#940000
0C
#950000
1@
b0 >
1C
#960000
0C
#970000
b1 >
0@
1C
#980000
0C
#990000
08"
b1010 !
b1010 ;"
b10 >
b101110010 1
b101 -
b101 `
b101 $"
b11111111111111111110110001111000 T
b11111111111111111110110001111000 *
b0 '
b0 Z
b0 #"
b101110010 3
b11110110000 2
b0 /
b11111111111111111110110001111000 +
b0 (
b0 &
b0 Y
b0 ""
00
b1010 >"
1C
0B
#1000000
0C
#1010000
b11 >
b1 B"
0$
09"
b1010 I
1C
#1020000
0C
#1030000
b10 B"
b100 >
1C
#1040000
0C
#1050000
b1010000 R"
1@
0q
b11110110000 O"
b101110010 ?
b101110010 V
b101110010 F"
b0 >
b11 B"
1C
#1060000
0C
#1070000
b100 B"
b1 >
0@
1C
#1080000
0C
#1090000
b10 >
b101 B"
1C
#1100000
0C
#1110000
b110 B"
b11 >
1C
#1120000
0C
#1130000
b100 >
b111 B"
1C
#1140000
0C
#1150000
b1000 B"
1@
b0 >
1C
#1160000
0C
#1170000
b1 >
0@
b1001 B"
1C
#1180000
0C
#1190000
b110 -
b110 `
b110 $"
b0 ,
0)
b1011 >"
b1010 B"
b10 >
1C
#1200000
0C
#1210000
b11 >
b1011 !
b1011 ;"
1C
#1220000
0C
#1230000
0.
b100 >
b1011 I
1C
#1240000
0C
#1250000
1@
b0 >
1C
#1260000
b0 R
0C
0N
#1261000
b0 T
b0 *
0%
b0 -
b0 `
b0 $"
b0 !"
b111000010 R"
b0 >"
b0 !
b0 ;"
b0 B"
b0 "
b0 <"
b11000111110 O"
b0 ?
b0 V
b0 F"
0@
0J
#1270000
b0 I
1C
